{
  "project_info": {
    "project_number": "184120454139",
    "project_id": "bellme-2bee1",
    "storage_bucket": "bellme-2bee1.appspot.com"
  },
  "client": [
    {
      "client_info": {
        "mobilesdk_app_id": "1:184120454139:android:a6097f44eac09c4541b95e",
        "android_client_info": {
          "package_name": "com.mughees1512.bellme"
        }
      },
      "oauth_client": [],
      "api_key": [
        {
          "current_key": "AIzaSyBNzYuLyV_3tRE7B-73Jkp1mCfRn78cWA4"
        }
      ],
      "services": {
        "appinvite_service": {
          "other_platform_oauth_client": [
            {
              "client_id": "184120454139-r25ifnofhb73lljk3oso3975vbe2jh3n.apps.googleusercontent.com",
              "client_type": 3
            },
            {
              "client_id": "184120454139-ucd3d2sq9gsg8g013sm00hisjmdb0cqs.apps.googleusercontent.com",
              "client_type": 2,
              "ios_info": {
                "bundle_id": "host.exp.exponent"
              }
            }
          ]
        }
      }
    }
  ],
  "configuration_version": "1"
}